<?xml version="1.0" encoding="utf-8"?>
<!-- Generator: Adobe Illustrator 27.4.1, SVG Export Plug-In . SVG Version: 6.00 Build 0)  -->
<svg version="1.1" id="Layer_1" xmlns="http://www.w3.org/2000/svg" xmlns:xlink="http://www.w3.org/1999/xlink" x="0px" y="0px"
	 viewBox="0 0 34 34" style="enable-background:new 0 0 34 34;" xml:space="preserve">
<style type="text/css">
	.st0{clip-path:url(#SVGID_00000114039968177677384210000008110846919317386390_);}
	.st1{fill:#111f;}
</style>
<g>
	<defs>
		<rect id="SVGID_1_" x="4.5" y="4.3" width="25" height="25"/>
	</defs>
	<clipPath id="SVGID_00000083060425064254151740000010577417327435543983_">
		<use xlink:href="#SVGID_1_"  style="overflow:visible;"/>
	</clipPath>
	<g style="clip-path:url(#SVGID_00000083060425064254151740000010577417327435543983_);">
		<path class="st1" d="M25.8,8c-2.4-2.4-5.5-3.7-8.8-3.7S10.5,5.6,8.2,8c-2.4,2.4-3.7,5.5-3.7,8.8c0,3.3,1.3,6.5,3.7,8.8
			c2.4,2.4,5.5,3.7,8.8,3.7s6.5-1.3,8.8-3.7c2.4-2.4,3.7-5.5,3.7-8.8C29.5,13.5,28.2,10.4,25.8,8z M17,27.9c-3,0-5.7-1.2-7.7-3.1
			c1.1-3.3,4.2-5.5,7.7-5.5s6.6,2.3,7.7,5.5C22.7,26.7,20,27.9,17,27.9z M13.3,14.1c0-2,1.6-3.7,3.7-3.7s3.7,1.6,3.7,3.7
			S19,17.8,17,17.8S13.3,16.1,13.3,14.1z M25.8,23.5c-1.1-2.5-3.2-4.4-5.8-5.3c1.3-0.9,2.1-2.4,2.1-4.2c0-2.8-2.3-5.1-5.1-5.1
			s-5.1,2.3-5.1,5.1c0,1.7,0.8,3.2,2.1,4.2c-2.6,0.9-4.7,2.8-5.8,5.3C6.8,21.7,6,19.4,6,16.8c0-6.1,5-11,11-11s11,5,11,11
			C28,19.4,27.2,21.7,25.8,23.5z"/>
	</g>
</g>
</svg>
