<svg width="28" height="28" viewBox="0 0 28 28" fill="none" xmlns="http://www.w3.org/2000/svg">
<path d="M24.3044 3.69578C24.0214 3.41149 23.685 3.18591 23.3145 3.03199C22.944 2.87806 22.5468 2.79883 22.1456 2.79883C21.7445 2.79883 21.3473 2.87806 20.9768 3.03199C20.6063 3.18591 20.2699 3.41149 19.9868 3.69578L9.02765 14.683C8.93988 14.7725 8.88467 14.8888 8.87085 15.0134L8.40045 18.9726C8.39047 19.056 8.39939 19.1406 8.42653 19.22C8.45367 19.2995 8.49835 19.3719 8.55725 19.4318C8.60977 19.4854 8.67253 19.5279 8.74179 19.5567C8.81106 19.5856 8.88541 19.6002 8.96045 19.5998H9.02205L13.0148 19.1854C13.1421 19.1713 13.2607 19.1139 13.3508 19.023L24.3044 8.03018C24.8769 7.45417 25.1982 6.67507 25.1982 5.86298C25.1982 5.05089 24.8769 4.27178 24.3044 3.69578ZM12.7012 18.0822L9.59885 18.4126L9.95725 15.3382L18.6148 6.65818L21.3532 9.40218L12.7012 18.0822ZM22.1428 8.61258L19.4044 5.86298L20.7764 4.47978C21.1449 4.12459 21.6367 3.92613 22.1484 3.92613C22.6602 3.92613 23.152 4.12459 23.5204 4.47978C23.8836 4.84403 24.0876 5.33741 24.0876 5.85178C24.0876 6.36614 23.8836 6.85953 23.5204 7.22378L22.1428 8.61258Z" fill="#009CDE"/>
<path d="M21.8408 21.2796C21.8408 22.0222 21.5458 22.7343 21.0207 23.2594C20.4956 23.7846 19.7834 24.0796 19.0408 24.0796H6.72078C5.97818 24.0796 5.26598 23.7846 4.74088 23.2594C4.21578 22.7343 3.92078 22.0222 3.92078 21.2796V8.95955C3.92078 8.21694 4.21578 7.50475 4.74088 6.97965C5.26598 6.45455 5.97818 6.15955 6.72078 6.15955H15.1208V5.03955H6.72078C5.68113 5.03955 4.68407 5.45255 3.94892 6.18769C3.21378 6.92284 2.80078 7.9199 2.80078 8.95955V21.2796C2.80078 22.3192 3.21378 23.3163 3.94892 24.0514C4.68407 24.7866 5.68113 25.1996 6.72078 25.1996H19.0408C20.0804 25.1996 21.0775 24.7866 21.8126 24.0514C22.5478 23.3163 22.9608 22.3192 22.9608 21.2796V12.8796H21.8408V21.2796Z" fill="#009CDE"/>
</svg>
