<?xml version="1.0" encoding="utf-8"?>
<!-- Generator: Adobe Illustrator 19.2.1, SVG Export Plug-In . SVG Version: 6.00 Build 0)  -->
<svg version="1.1" id="Layer_1" xmlns="http://www.w3.org/2000/svg" xmlns:xlink="http://www.w3.org/1999/xlink" x="0px" y="0px"
	 viewBox="0 0 16 16" style="enable-background:new 0 0 16 16;" xml:space="preserve">
<style type="text/css">
	.st0{fill:#252524; stroke:#009CDE;}
</style>
<g>
	<path class="st0" d="M14.5,3L13,1.5c-0.4-0.4-1-0.4-1.4,0l-1.3,1.3l3,3l1.3-1.3C14.9,4.1,14.9,3.4,14.5,3z"/>
	<rect x="2.3" y="6.6" transform="matrix(0.7071 -0.7071 0.7071 0.7071 -4.0655 7.6891)" class="st0" width="9.9" height="4.2"/>
	<path class="st0" d="M0.9,14.8C0.8,15,1,15.2,1.2,15.1l2-0.7l-1.6-1.6C1.6,12.8,0.9,14.8,0.9,14.8z"/>
</g>
</svg>
